; Engine configuration file.
; It's best edited using the editor UI and not directly,
; since the parameters that go here are not all obvious.
;
; Format:
;   [section] ; section goes between []
;   param=value ; assign values to parameters

config_version=4

_global_script_classes=[  ]
_global_script_class_icons={

}

[application]

config/name="match_three_2"
run/main_scene="res://Main.tscn"
boot_splash/image="res://assets/splash.png"
config/icon="res://icon.png"

[display]

window/size/width=411
window/size/height=823
window/dpi/allow_hidpi=true
window/handheld/orientation="sensor_portrait"
window/stretch/mode="2d"
window/stretch/aspect="expand"

[gui]

theme/use_hidpi=true

[rendering]

environment/default_environment="res://default_env.tres"
