[gd_scene load_steps=6 format=2]

[ext_resource path="res://script/Level.gd" type="Script" id=1]
[ext_resource path="res://assets/bg_level.png" type="Texture" id=2]
[ext_resource path="res://assets/back_btn.png" type="Texture" id=3]
[ext_resource path="res://assets/board_1.png" type="Texture" id=4]
[ext_resource path="res://assets/title_lvl_1.png" type="Texture" id=5]

[node name="Level" type="Control"]
anchor_right = 1.0
anchor_bottom = 1.0
script = ExtResource( 1 )
__meta__ = {
"_edit_use_anchors_": false
}

[node name="BG" type="TextureRect" parent="."]
anchor_left = 0.5
anchor_top = 0.5
anchor_right = 0.5
anchor_bottom = 0.5
margin_left = -250.0
margin_top = -411.5
margin_right = 250.0
margin_bottom = 411.5
texture = ExtResource( 2 )
__meta__ = {
"_edit_use_anchors_": false
}

[node name="Board" type="TextureRect" parent="."]
anchor_left = 0.5
anchor_top = 0.5
anchor_right = 0.5
anchor_bottom = 0.5
margin_left = -215.5
margin_top = -208.5
margin_right = 215.5
margin_bottom = 208.5
texture = ExtResource( 4 )
__meta__ = {
"_edit_use_anchors_": false
}

[node name="Title" type="TextureRect" parent="."]
anchor_left = 0.5
anchor_right = 0.5
margin_left = -101.0
margin_top = 48.0
margin_right = 101.0
margin_bottom = 91.0
texture = ExtResource( 5 )
__meta__ = {
"_edit_use_anchors_": false
}

[node name="Close" type="Button" parent="."]
anchor_left = 0.5
anchor_top = 1.0
anchor_right = 0.5
anchor_bottom = 1.0
margin_left = -145.0
margin_top = -116.0
margin_right = 145.0
margin_bottom = -32.0
rect_min_size = Vector2( 290, 84 )
focus_mode = 0
shortcut_in_tooltip = false
enabled_focus_mode = 0
flat = true
__meta__ = {
"_edit_group_": true
}

[node name="TextureRect" type="TextureRect" parent="Close"]
anchor_left = 0.5
anchor_top = 0.5
anchor_right = 0.5
anchor_bottom = 0.5
margin_left = -168.5
margin_top = -53.5
margin_right = 168.5
margin_bottom = 77.5
mouse_filter = 2
texture = ExtResource( 3 )
